{
"instructions_readme": "1) Open Chrome, 2) go to chrome://tracing, 3) click Load, 4) navigate to this file.",

"traceEvents":[
{ "pid": 1, "tid": 1, "ph": "M", "name": "thread_name", "args": { "name": "" } },
{ "pid": 1, "tid": 1, "ts": 2.0000000949949, "dur": 12179620.1171875, "ph": "X", "name": "il2cpp.exe", "args": { "durationMS": 12179.6201171875, "detail": "" } },
{ "pid": 1, "tid": 1, "ts": 181351.013183594, "dur": 11995400.390625, "ph": "X", "name": "ConvertAssemblies", "args": { "durationMS": 11995.400390625, "detail": "" } },
{ "pid": 1, "tid": 1, "ts": 210162.002563477, "dur": 80544.9981689453, "ph": "X", "name": "Collect assemblies to convert", "args": { "durationMS": 80.5449981689453, "detail": "" } },
{ "pid": 1, "tid": 1, "ts": 290846.008300781, "dur": 74656.9976806641, "ph": "X", "name": "RegisterCorlib", "args": { "durationMS": 74.6569976806641, "detail": "" } },
{ "pid": 1, "tid": 1, "ts": 365822.998046875, "dur": 65060.9970092773, "ph": "X", "name": "PreProcessIL", "args": { "durationMS": 65.0609970092773, "detail": "" } },
{ "pid": 1, "tid": 1, "ts": 365822.998046875, "dur": 16627.0008087158, "ph": "X", "name": "Inject base types and finalizers into COM and Windows Runtime types", "args": { "durationMS": 16.6270008087158, "detail": "" } },
{ "pid": 1, "tid": 1, "ts": 366153.991699219, "dur": 11250, "ph": "X", "name": "ModifyCOMAndWindowsRuntimeTypes in assembly", "args": { "durationMS": 11.25, "detail": "mscorlib" } },
{ "pid": 1, "tid": 1, "ts": 377404.968261719, "dur": 1929.99994754791, "ph": "X", "name": "ModifyCOMAndWindowsRuntimeTypes in assembly", "args": { "durationMS": 1.92999994754791, "detail": "Mono.Security" } },
{ "pid": 1, "tid": 1, "ts": 379914.001464844, "dur": 1093.99998188019, "ph": "X", "name": "ModifyCOMAndWindowsRuntimeTypes in assembly", "args": { "durationMS": 1.09399998188019, "detail": "UnityEngine.CoreModule" } },
{ "pid": 1, "tid": 1, "ts": 381328.979492188, "dur": 873.000025749207, "ph": "X", "name": "ModifyCOMAndWindowsRuntimeTypes in assembly", "args": { "durationMS": 0.873000025749207, "detail": "UnityEngine.UI" } },
{ "pid": 1, "tid": 1, "ts": 382449.981689453, "dur": 48432.9986572266, "ph": "X", "name": "ApplyDefaultMarshalAsAttribute", "args": { "durationMS": 48.4329986572266, "detail": "" } },
{ "pid": 1, "tid": 1, "ts": 382790.985107422, "dur": 28604.9995422363, "ph": "X", "name": "ApplyDefaultMarshalAsAttributeVisitor in assembly", "args": { "durationMS": 28.6049995422363, "detail": "mscorlib" } },
{ "pid": 1, "tid": 1, "ts": 411433.990478516, "dur": 3772.0000743866, "ph": "X", "name": "ApplyDefaultMarshalAsAttributeVisitor in assembly", "args": { "durationMS": 3.7720000743866, "detail": "System" } },
{ "pid": 1, "tid": 1, "ts": 415410.003662109, "dur": 10759.9992752075, "ph": "X", "name": "ApplyDefaultMarshalAsAttributeVisitor in assembly", "args": { "durationMS": 10.7599992752075, "detail": "UnityEngine.CoreModule" } },
{ "pid": 1, "tid": 1, "ts": 426384.002685547, "dur": 361.999988555908, "ph": "X", "name": "ApplyDefaultMarshalAsAttributeVisitor in assembly", "args": { "durationMS": 0.361999988555908, "detail": "UnityEngine.IMGUIModule" } },
{ "pid": 1, "tid": 1, "ts": 427431.976318359, "dur": 1451.00009441376, "ph": "X", "name": "ApplyDefaultMarshalAsAttributeVisitor in assembly", "args": { "durationMS": 1.45100009441376, "detail": "UnityEngine.UI" } },
{ "pid": 1, "tid": 1, "ts": 428883.026123047, "dur": 365.000009536743, "ph": "X", "name": "ApplyDefaultMarshalAsAttributeVisitor in assembly", "args": { "durationMS": 0.365000009536743, "detail": "UnityEngine.UNETModule" } },
{ "pid": 1, "tid": 1, "ts": 429279.022216797, "dur": 1447.00002670288, "ph": "X", "name": "ApplyDefaultMarshalAsAttributeVisitor in assembly", "args": { "durationMS": 1.44700002670288, "detail": "com.unity.multiplayer-hlapi.Runtime" } },
{ "pid": 1, "tid": 1, "ts": 431164.001464844, "dur": 9083.00018310547, "ph": "X", "name": "WriteResources", "args": { "durationMS": 9.08300018310547, "detail": "" } },
{ "pid": 1, "tid": 1, "ts": 440731.018066406, "dur": 37246.0021972656, "ph": "X", "name": "CopyEtcFolder", "args": { "durationMS": 37.2460021972656, "detail": "" } },
{ "pid": 1, "tid": 1, "ts": 478671.997070312, "dur": 297285.003662109, "ph": "X", "name": "PreProcessStage", "args": { "durationMS": 297.285003662109, "detail": "" } },
{ "pid": 1, "tid": 1, "ts": 775966.003417969, "dur": 2243.99995803833, "ph": "X", "name": "Debugger Sequence Points", "args": { "durationMS": 2.24399995803833, "detail": "" } },
{ "pid": 1, "tid": 1, "ts": 778876.037597656, "dur": 1437456.0546875, "ph": "X", "name": "Generics Collection", "args": { "durationMS": 1437.4560546875, "detail": "" } },
{ "pid": 1, "tid": 1, "ts": 778877.014160156, "dur": 1428962.03613281, "ph": "X", "name": "GenericsCollector.Collect", "args": { "durationMS": 1428.96203613281, "detail": "" } },
{ "pid": 1, "tid": 1, "ts": 2207838.8671875, "dur": 6526.00002288818, "ph": "X", "name": "CollectGenericVirtualMethods.Collect", "args": { "durationMS": 6.52600002288818, "detail": "" } },
{ "pid": 1, "tid": 1, "ts": 2214365.96679688, "dur": 1460.99996566772, "ph": "X", "name": "AddExtraTypes", "args": { "durationMS": 1.46099996566772, "detail": "" } },
{ "pid": 1, "tid": 1, "ts": 2216333.25195312, "dur": 1875.00011920929, "ph": "X", "name": "Add Windows Runtime type names", "args": { "durationMS": 1.87500011920929, "detail": "" } },
{ "pid": 1, "tid": 1, "ts": 2216333.25195312, "dur": 1873.99995326996, "ph": "X", "name": "Add Windows Runtime type names", "args": { "durationMS": 1.87399995326996, "detail": "" } },
{ "pid": 1, "tid": 1, "ts": 2234845.94726562, "dur": 5022466.30859375, "ph": "X", "name": "AllAssemblyConversion", "args": { "durationMS": 5022.46630859375, "detail": "" } },
{ "pid": 1, "tid": 1, "ts": 2241805.17578125, "dur": 2494782.95898438, "ph": "X", "name": "Convert", "args": { "durationMS": 2494.78295898438, "detail": "mscorlib" } },
{ "pid": 1, "tid": 1, "ts": 2241806.88476562, "dur": 2494779.78515625, "ph": "X", "name": "Code", "args": { "durationMS": 2494.77978515625, "detail": "" } },
{ "pid": 1, "tid": 1, "ts": 2242512.93945312, "dur": 2494073.2421875, "ph": "X", "name": "Methods", "args": { "durationMS": 2494.0732421875, "detail": "Definitions" } },
{ "pid": 1, "tid": 1, "ts": 4740617.1875, "dur": 8105.99994659424, "ph": "X", "name": "Convert", "args": { "durationMS": 8.10599994659424, "detail": "Mono.Security" } },
{ "pid": 1, "tid": 1, "ts": 4740619.140625, "dur": 8104.00009155273, "ph": "X", "name": "Code", "args": { "durationMS": 8.10400009155273, "detail": "" } },
{ "pid": 1, "tid": 1, "ts": 4740631.8359375, "dur": 8090.99960327148, "ph": "X", "name": "Methods", "args": { "durationMS": 8.09099960327148, "detail": "Definitions" } },
{ "pid": 1, "tid": 1, "ts": 4752746.09375, "dur": 391595.001220703, "ph": "X", "name": "Convert", "args": { "durationMS": 391.595001220703, "detail": "System" } },
{ "pid": 1, "tid": 1, "ts": 4752747.55859375, "dur": 391592.987060547, "ph": "X", "name": "Code", "args": { "durationMS": 391.592987060547, "detail": "" } },
{ "pid": 1, "tid": 1, "ts": 4752806.15234375, "dur": 391534.027099609, "ph": "X", "name": "Methods", "args": { "durationMS": 391.534027099609, "detail": "Definitions" } },
{ "pid": 1, "tid": 1, "ts": 5148302.734375, "dur": 2471.99988365173, "ph": "X", "name": "Convert", "args": { "durationMS": 2.47199988365173, "detail": "System.Configuration" } },
{ "pid": 1, "tid": 1, "ts": 5148303.7109375, "dur": 2470.00002861023, "ph": "X", "name": "Code", "args": { "durationMS": 2.47000002861023, "detail": "" } },
{ "pid": 1, "tid": 1, "ts": 5148312.98828125, "dur": 2460.00003814697, "ph": "X", "name": "Methods", "args": { "durationMS": 2.46000003814697, "detail": "Definitions" } },
{ "pid": 1, "tid": 1, "ts": 5154937.01171875, "dur": 536.00001335144, "ph": "X", "name": "Convert", "args": { "durationMS": 0.53600001335144, "detail": "System.Xml" } },
{ "pid": 1, "tid": 1, "ts": 5154937.98828125, "dur": 533.999979496002, "ph": "X", "name": "Code", "args": { "durationMS": 0.533999979496002, "detail": "" } },
{ "pid": 1, "tid": 1, "ts": 5154942.87109375, "dur": 528.999984264374, "ph": "X", "name": "Methods", "args": { "durationMS": 0.528999984264374, "detail": "Definitions" } },
{ "pid": 1, "tid": 1, "ts": 5159111.328125, "dur": 902.999997138977, "ph": "X", "name": "Convert", "args": { "durationMS": 0.902999997138977, "detail": "System.Core" } },
{ "pid": 1, "tid": 1, "ts": 5159112.3046875, "dur": 901.000022888184, "ph": "X", "name": "Code", "args": { "durationMS": 0.901000022888184, "detail": "" } },
{ "pid": 1, "tid": 1, "ts": 5159118.65234375, "dur": 893.999993801117, "ph": "X", "name": "Methods", "args": { "durationMS": 0.893999993801117, "detail": "Definitions" } },
{ "pid": 1, "tid": 1, "ts": 5163995.1171875, "dur": 12270.0004577637, "ph": "X", "name": "Convert", "args": { "durationMS": 12.2700004577637, "detail": "UnityEngine.SharedInternalsModule" } },
{ "pid": 1, "tid": 1, "ts": 5163996.09375, "dur": 12269.0000534058, "ph": "X", "name": "Code", "args": { "durationMS": 12.2690000534058, "detail": "" } },
{ "pid": 1, "tid": 1, "ts": 5164011.71875, "dur": 12251.9998550415, "ph": "X", "name": "Methods", "args": { "durationMS": 12.2519998550415, "detail": "Definitions" } },
{ "pid": 1, "tid": 1, "ts": 5179893.06640625, "dur": 262575.012207031, "ph": "X", "name": "Convert", "args": { "durationMS": 262.575012207031, "detail": "UnityEngine.CoreModule" } },
{ "pid": 1, "tid": 1, "ts": 5179893.5546875, "dur": 262572.998046875, "ph": "X", "name": "Code", "args": { "durationMS": 262.572998046875, "detail": "" } },
{ "pid": 1, "tid": 1, "ts": 5180020.99609375, "dur": 262446.014404297, "ph": "X", "name": "Methods", "args": { "durationMS": 262.446014404297, "detail": "Definitions" } },
{ "pid": 1, "tid": 1, "ts": 5446362.79296875, "dur": 389.999985694885, "ph": "X", "name": "Convert", "args": { "durationMS": 0.389999985694885, "detail": "System.Diagnostics.StackTrace" } },
{ "pid": 1, "tid": 1, "ts": 5446364.2578125, "dur": 388.999998569489, "ph": "X", "name": "Code", "args": { "durationMS": 0.388999998569489, "detail": "" } },
{ "pid": 1, "tid": 1, "ts": 5446368.65234375, "dur": 384.00000333786, "ph": "X", "name": "Methods", "args": { "durationMS": 0.38400000333786, "detail": "Definitions" } },
{ "pid": 1, "tid": 1, "ts": 5454307.12890625, "dur": 14076.9996643066, "ph": "X", "name": "Convert", "args": { "durationMS": 14.0769996643066, "detail": "UnityEngine.TextRenderingModule" } },
{ "pid": 1, "tid": 1, "ts": 5454308.10546875, "dur": 14074.9998092651, "ph": "X", "name": "Code", "args": { "durationMS": 14.0749998092651, "detail": "" } },
{ "pid": 1, "tid": 1, "ts": 5454317.87109375, "dur": 14065.0005340576, "ph": "X", "name": "Methods", "args": { "durationMS": 14.0650005340576, "detail": "Definitions" } },
{ "pid": 1, "tid": 1, "ts": 5472159.66796875, "dur": 23506.0005187988, "ph": "X", "name": "Convert", "args": { "durationMS": 23.5060005187988, "detail": "UnityEngine.AnimationModule" } },
{ "pid": 1, "tid": 1, "ts": 5472160.64453125, "dur": 23503.999710083, "ph": "X", "name": "Code", "args": { "durationMS": 23.503999710083, "detail": "" } },
{ "pid": 1, "tid": 1, "ts": 5472192.87109375, "dur": 23472.0001220703, "ph": "X", "name": "Methods", "args": { "durationMS": 23.4720001220703, "detail": "Definitions" } },
{ "pid": 1, "tid": 1, "ts": 5499366.69921875, "dur": 109277.99987793, "ph": "X", "name": "Convert", "args": { "durationMS": 109.27799987793, "detail": "UnityEngine.IMGUIModule" } },
{ "pid": 1, "tid": 1, "ts": 5499369.140625, "dur": 109275.993347168, "ph": "X", "name": "Code", "args": { "durationMS": 109.275993347168, "detail": "" } },
{ "pid": 1, "tid": 1, "ts": 5499384.765625, "dur": 109259.994506836, "ph": "X", "name": "Methods", "args": { "durationMS": 109.259994506836, "detail": "Definitions" } },
{ "pid": 1, "tid": 1, "ts": 5612330.078125, "dur": 11098.0005264282, "ph": "X", "name": "Convert", "args": { "durationMS": 11.0980005264282, "detail": "UnityEngine.InputLegacyModule" } },
{ "pid": 1, "tid": 1, "ts": 5612331.0546875, "dur": 11097.0001220703, "ph": "X", "name": "Code", "args": { "durationMS": 11.0970001220703, "detail": "" } },
{ "pid": 1, "tid": 1, "ts": 5612339.35546875, "dur": 11088.0002975464, "ph": "X", "name": "Methods", "args": { "durationMS": 11.0880002975464, "detail": "Definitions" } },
{ "pid": 1, "tid": 1, "ts": 5627039.55078125, "dur": 1187.00003623962, "ph": "X", "name": "Convert", "args": { "durationMS": 1.18700003623962, "detail": "UnityEngine.JSONSerializeModule" } },
{ "pid": 1, "tid": 1, "ts": 5627040.0390625, "dur": 1185.99998950958, "ph": "X", "name": "Code", "args": { "durationMS": 1.18599998950958, "detail": "" } },
{ "pid": 1, "tid": 1, "ts": 5627044.921875, "dur": 1179.99994754791, "ph": "X", "name": "Methods", "args": { "durationMS": 1.17999994754791, "detail": "Definitions" } },
{ "pid": 1, "tid": 1, "ts": 5633526.85546875, "dur": 15934.0000152588, "ph": "X", "name": "Convert", "args": { "durationMS": 15.9340000152588, "detail": "UnityEngine.Physics2DModule" } },
{ "pid": 1, "tid": 1, "ts": 5633529.296875, "dur": 15932.0001602173, "ph": "X", "name": "Code", "args": { "durationMS": 15.9320001602173, "detail": "" } },
{ "pid": 1, "tid": 1, "ts": 5633538.0859375, "dur": 15923.0003356934, "ph": "X", "name": "Methods", "args": { "durationMS": 15.9230003356934, "detail": "Definitions" } },
{ "pid": 1, "tid": 1, "ts": 5653169.921875, "dur": 14508.9998245239, "ph": "X", "name": "Convert", "args": { "durationMS": 14.5089998245239, "detail": "UnityEngine.PhysicsModule" } },
{ "pid": 1, "tid": 1, "ts": 5653170.8984375, "dur": 14508.0003738403, "ph": "X", "name": "Code", "args": { "durationMS": 14.5080003738403, "detail": "" } },
{ "pid": 1, "tid": 1, "ts": 5653179.6875, "dur": 14498.0001449585, "ph": "X", "name": "Methods", "args": { "durationMS": 14.4980001449585, "detail": "Definitions" } },
{ "pid": 1, "tid": 1, "ts": 5671223.6328125, "dur": 11909.0003967285, "ph": "X", "name": "Convert", "args": { "durationMS": 11.9090003967285, "detail": "UnityEngine.UIModule" } },
{ "pid": 1, "tid": 1, "ts": 5671225.09765625, "dur": 11907.000541687, "ph": "X", "name": "Code", "args": { "durationMS": 11.907000541687, "detail": "" } },
{ "pid": 1, "tid": 1, "ts": 5671233.3984375, "dur": 11899.0001678467, "ph": "X", "name": "Methods", "args": { "durationMS": 11.8990001678467, "detail": "Definitions" } },
{ "pid": 1, "tid": 1, "ts": 5686838.8671875, "dur": 39289.0014648438, "ph": "X", "name": "Convert", "args": { "durationMS": 39.2890014648438, "detail": "UnityEngine.UnityWebRequestModule" } },
{ "pid": 1, "tid": 1, "ts": 5686839.84375, "dur": 39288.0020141602, "ph": "X", "name": "Code", "args": { "durationMS": 39.2880020141602, "detail": "" } },
{ "pid": 1, "tid": 1, "ts": 5686848.14453125, "dur": 39279.0031433105, "ph": "X", "name": "Methods", "args": { "durationMS": 39.2790031433105, "detail": "Definitions" } },
{ "pid": 1, "tid": 1, "ts": 5734482.91015625, "dur": 546.000003814697, "ph": "X", "name": "Convert", "args": { "durationMS": 0.546000003814697, "detail": "netstandard" } },
{ "pid": 1, "tid": 1, "ts": 5734484.86328125, "dur": 544.000029563904, "ph": "X", "name": "Code", "args": { "durationMS": 0.544000029563904, "detail": "" } },
{ "pid": 1, "tid": 1, "ts": 5734493.1640625, "dur": 535.000026226044, "ph": "X", "name": "Methods", "args": { "durationMS": 0.535000026226044, "detail": "Definitions" } },
{ "pid": 1, "tid": 1, "ts": 5741087.40234375, "dur": 7565.00005722046, "ph": "X", "name": "Convert", "args": { "durationMS": 7.56500005722046, "detail": "UnityEngine.AudioModule" } },
{ "pid": 1, "tid": 1, "ts": 5741088.8671875, "dur": 7561.99979782104, "ph": "X", "name": "Code", "args": { "durationMS": 7.56199979782104, "detail": "" } },
{ "pid": 1, "tid": 1, "ts": 5741101.07421875, "dur": 7550.00019073486, "ph": "X", "name": "Methods", "args": { "durationMS": 7.55000019073486, "detail": "Definitions" } },
{ "pid": 1, "tid": 1, "ts": 5752224.609375, "dur": 51750.9994506836, "ph": "X", "name": "Convert", "args": { "durationMS": 51.7509994506836, "detail": "UnityEngine.GameCenterModule" } },
{ "pid": 1, "tid": 1, "ts": 5752225.5859375, "dur": 51749.0005493164, "ph": "X", "name": "Code", "args": { "durationMS": 51.7490005493164, "detail": "" } },
{ "pid": 1, "tid": 1, "ts": 5752246.58203125, "dur": 51728.0006408691, "ph": "X", "name": "Methods", "args": { "durationMS": 51.7280006408691, "detail": "Definitions" } },
{ "pid": 1, "tid": 1, "ts": 5808363.76953125, "dur": 711769.958496094, "ph": "X", "name": "Convert", "args": { "durationMS": 711.769958496094, "detail": "UnityEngine.UI" } },
{ "pid": 1, "tid": 1, "ts": 5808364.74609375, "dur": 711768.005371094, "ph": "X", "name": "Code", "args": { "durationMS": 711.768005371094, "detail": "" } },
{ "pid": 1, "tid": 1, "ts": 5808436.5234375, "dur": 711697.021484375, "ph": "X", "name": "Methods", "args": { "durationMS": 711.697021484375, "detail": "Definitions" } },
{ "pid": 1, "tid": 1, "ts": 6524520.01953125, "dur": 73694.9996948242, "ph": "X", "name": "Convert", "args": { "durationMS": 73.6949996948242, "detail": "UnityEngine.UNETModule" } },
{ "pid": 1, "tid": 1, "ts": 6524520.99609375, "dur": 73693.000793457, "ph": "X", "name": "Code", "args": { "durationMS": 73.693000793457, "detail": "" } },
{ "pid": 1, "tid": 1, "ts": 6524541.9921875, "dur": 73671.9970703125, "ph": "X", "name": "Methods", "args": { "durationMS": 73.6719970703125, "detail": "Definitions" } },
{ "pid": 1, "tid": 1, "ts": 6602379.8828125, "dur": 4177.00004577637, "ph": "X", "name": "Convert", "args": { "durationMS": 4.17700004577637, "detail": "UnityEngine.UnityAnalyticsModule" } },
{ "pid": 1, "tid": 1, "ts": 6602381.8359375, "dur": 4174.00026321411, "ph": "X", "name": "Code", "args": { "durationMS": 4.17400026321411, "detail": "" } },
{ "pid": 1, "tid": 1, "ts": 6602391.6015625, "dur": 4164.00003433228, "ph": "X", "name": "Methods", "args": { "durationMS": 4.16400003433228, "detail": "Definitions" } },
{ "pid": 1, "tid": 1, "ts": 6610482.91015625, "dur": 388.000011444092, "ph": "X", "name": "Convert", "args": { "durationMS": 0.388000011444092, "detail": "UnityEngine" } },
{ "pid": 1, "tid": 1, "ts": 6610484.375, "dur": 386.999994516373, "ph": "X", "name": "Code", "args": { "durationMS": 0.386999994516373, "detail": "" } },
{ "pid": 1, "tid": 1, "ts": 6610489.74609375, "dur": 381.000012159348, "ph": "X", "name": "Methods", "args": { "durationMS": 0.381000012159348, "detail": "Definitions" } },
{ "pid": 1, "tid": 1, "ts": 6614854.98046875, "dur": 592026.000976562, "ph": "X", "name": "Convert", "args": { "durationMS": 592.026000976562, "detail": "com.unity.multiplayer-hlapi.Runtime" } },
{ "pid": 1, "tid": 1, "ts": 6614856.4453125, "dur": 592023.986816406, "ph": "X", "name": "Code", "args": { "durationMS": 592.023986816406, "detail": "" } },
{ "pid": 1, "tid": 1, "ts": 6614899.4140625, "dur": 591980.95703125, "ph": "X", "name": "Methods", "args": { "durationMS": 591.98095703125, "detail": "Definitions" } },
{ "pid": 1, "tid": 1, "ts": 7210987.79296875, "dur": 46319.0002441406, "ph": "X", "name": "Convert", "args": { "durationMS": 46.3190002441406, "detail": "Assembly-CSharp" } },
{ "pid": 1, "tid": 1, "ts": 7210988.76953125, "dur": 46317.9969787598, "ph": "X", "name": "Code", "args": { "durationMS": 46.3179969787598, "detail": "" } },
{ "pid": 1, "tid": 1, "ts": 7210997.55859375, "dur": 46309.9975585938, "ph": "X", "name": "Methods", "args": { "durationMS": 46.3099975585938, "detail": "Definitions" } },
{ "pid": 1, "tid": 1, "ts": 7257312.5, "dur": 2656231.93359375, "ph": "X", "name": "WriteGenerics", "args": { "durationMS": 2656.23193359375, "detail": "" } },
{ "pid": 1, "tid": 1, "ts": 7263710.44921875, "dur": 11689.0001296997, "ph": "X", "name": "Arrays Definitions", "args": { "durationMS": 11.6890001296997, "detail": "" } },
{ "pid": 1, "tid": 1, "ts": 7275799.8046875, "dur": 485102.020263672, "ph": "X", "name": "GenericInstanceMethods", "args": { "durationMS": 485.102020263672, "detail": "" } },
{ "pid": 1, "tid": 1, "ts": 7760901.85546875, "dur": 1856071.89941406, "ph": "X", "name": "GenericInstanceTypes", "args": { "durationMS": 1856.07189941406, "detail": "" } },
{ "pid": 1, "tid": 1, "ts": 9617316.40625, "dur": 296216.979980469, "ph": "X", "name": "GenericComDefinitions", "args": { "durationMS": 296.216979980469, "detail": "" } },
{ "pid": 1, "tid": 1, "ts": 9923599.609375, "dur": 279285.003662109, "ph": "X", "name": "MetadataCollector", "args": { "durationMS": 279.285003662109, "detail": "" } },
{ "pid": 1, "tid": 1, "ts": 9927486.328125, "dur": 13100.9998321533, "ph": "X", "name": "UpdateEmptyTokens", "args": { "durationMS": 13.1009998321533, "detail": "" } },
{ "pid": 1, "tid": 1, "ts": 9942582.03125, "dur": 10241.9996261597, "ph": "X", "name": "ValidateTokens", "args": { "durationMS": 10.2419996261597, "detail": "" } },
{ "pid": 1, "tid": 1, "ts": 10203190.4296875, "dur": 2344.00010108948, "ph": "X", "name": "Write COM Callable Wrappers", "args": { "durationMS": 2.34400010108948, "detail": "" } },
{ "pid": 1, "tid": 1, "ts": 10205102.5390625, "dur": 430.000007152557, "ph": "X", "name": "Collect implemented projected interfaces by COM Callable Wrappers", "args": { "durationMS": 0.430000007152557, "detail": "" } },
{ "pid": 1, "tid": 1, "ts": 10205535.15625, "dur": 1967408.08105469, "ph": "X", "name": "Metadata", "args": { "durationMS": 1967.40808105469, "detail": "Global" } },
{ "pid": 1, "tid": 1, "ts": 10293435.546875, "dur": 326734.008789062, "ph": "X", "name": "Attributes", "args": { "durationMS": 326.734008789062, "detail": "" } },
{ "pid": 1, "tid": 1, "ts": 10786841.796875, "dur": 381644.989013672, "ph": "X", "name": "WriteCodeRegistration", "args": { "durationMS": 381.644989013672, "detail": "" } },
{ "pid": 1, "tid": 1, "ts": 10838357.421875, "dur": 5325.00028610229, "ph": "X", "name": "GenericContextCollector", "args": { "durationMS": 5.32500028610229, "detail": "Collect" } },
{ "pid": 1, "tid": 1, "ts": 10864943.359375, "dur": 365.000009536743, "ph": "X", "name": "GenericContextCollector", "args": { "durationMS": 0.365000009536743, "detail": "Collect" } },
{ "pid": 1, "tid": 1, "ts": 10939626.953125, "dur": 4134.00030136108, "ph": "X", "name": "ReversePInvokerWrapperTable", "args": { "durationMS": 4.13400030136108, "detail": "Il2CppReversePInvokeWrapperTable.cpp" } },
{ "pid": 1, "tid": 1, "ts": 10944185.546875, "dur": 136496.002197266, "ph": "X", "name": "GenericMethodPointerTable", "args": { "durationMS": 136.496002197266, "detail": "Il2CppGenericMethodPointerTable.cpp" } },
{ "pid": 1, "tid": 1, "ts": 11081045.8984375, "dur": 69523.9944458008, "ph": "X", "name": "InvokerTable", "args": { "durationMS": 69.5239944458008, "detail": "Il2CppInvokerTable.cpp" } },
{ "pid": 1, "tid": 1, "ts": 11151751.953125, "dur": 8958.00018310547, "ph": "X", "name": "InteropDataTable", "args": { "durationMS": 8.95800018310547, "detail": "Il2CppInteropDataTable.cpp" } },
{ "pid": 1, "tid": 1, "ts": 11168488.28125, "dur": 1004455.01708984, "ph": "X", "name": "WriteMetadata", "args": { "durationMS": 1004.45501708984, "detail": "" } },
{ "pid": 1, "tid": 1, "ts": 11259291.9921875, "dur": 6131.00004196167, "ph": "X", "name": "Metadata", "args": { "durationMS": 6.13100004196167, "detail": "Collect string literals" } },
{ "pid": 1, "tid": 1, "ts": 11358242.1875, "dur": 52521.9993591309, "ph": "X", "name": "GenericClasses", "args": { "durationMS": 52.5219993591309, "detail": "" } },
{ "pid": 1, "tid": 1, "ts": 11410765.625, "dur": 17232.9998016357, "ph": "X", "name": "GenericInst2", "args": { "durationMS": 17.2329998016357, "detail": "" } },
{ "pid": 1, "tid": 1, "ts": 11428000, "dur": 252268.981933594, "ph": "X", "name": "GenericMethods", "args": { "durationMS": 252.268981933594, "detail": "" } },
{ "pid": 1, "tid": 1, "ts": 11680269.53125, "dur": 119179.000854492, "ph": "X", "name": "Il2CppTypes", "args": { "durationMS": 119.179000854492, "detail": "" } },
{ "pid": 1, "tid": 1, "ts": 11799448.2421875, "dur": 44169.9981689453, "ph": "X", "name": "GenericMethods", "args": { "durationMS": 44.1699981689453, "detail": "" } },
{ "pid": 1, "tid": 1, "ts": 11843620.1171875, "dur": 108196.006774902, "ph": "X", "name": "CompilerCalculateTypeValues", "args": { "durationMS": 108.196006774902, "detail": "" } },
{ "pid": 1, "tid": 1, "ts": 11951816.40625, "dur": 2881.99996948242, "ph": "X", "name": "Registration", "args": { "durationMS": 2.88199996948242, "detail": "" } },
{ "pid": 1, "tid": 1, "ts": 11954887.6953125, "dur": 5519.99998092651, "ph": "X", "name": "StringLiteralWriter", "args": { "durationMS": 5.51999998092651, "detail": "" } },
{ "pid": 1, "tid": 1, "ts": 11960817.3828125, "dur": 2108.99996757507, "ph": "X", "name": "Metadata Strings", "args": { "durationMS": 2.10899996757507, "detail": "" } },
{ "pid": 1, "tid": 1, "ts": 11962930.6640625, "dur": 3566.00022315979, "ph": "X", "name": "Events", "args": { "durationMS": 3.56600022315979, "detail": "" } },
{ "pid": 1, "tid": 1, "ts": 11966498.046875, "dur": 6533.99991989136, "ph": "X", "name": "Properties", "args": { "durationMS": 6.53399991989136, "detail": "" } },
{ "pid": 1, "tid": 1, "ts": 11973033.203125, "dur": 75432.9986572266, "ph": "X", "name": "Methods", "args": { "durationMS": 75.4329986572266, "detail": "" } },
{ "pid": 1, "tid": 1, "ts": 12048466.796875, "dur": 1023.00000190735, "ph": "X", "name": "Parameter Default Values", "args": { "durationMS": 1.02300000190735, "detail": "" } },
{ "pid": 1, "tid": 1, "ts": 12049490.234375, "dur": 1500.99992752075, "ph": "X", "name": "Field Default Values", "args": { "durationMS": 1.50099992752075, "detail": "" } },
{ "pid": 1, "tid": 1, "ts": 12050992.1875, "dur": 569.000005722046, "ph": "X", "name": "Field and Parameter Default Values Data", "args": { "durationMS": 0.569000005722046, "detail": "" } },
{ "pid": 1, "tid": 1, "ts": 12051562.5, "dur": 737.999975681305, "ph": "X", "name": "Field Marshaled Sizes", "args": { "durationMS": 0.737999975681305, "detail": "" } },
{ "pid": 1, "tid": 1, "ts": 12052300.78125, "dur": 13534.9998474121, "ph": "X", "name": "Parameters", "args": { "durationMS": 13.5349998474121, "detail": "" } },
{ "pid": 1, "tid": 1, "ts": 12065836.9140625, "dur": 8263.99993896484, "ph": "X", "name": "Fields", "args": { "durationMS": 8.26399993896484, "detail": "" } },
{ "pid": 1, "tid": 1, "ts": 12074101.5625, "dur": 1565.99998474121, "ph": "X", "name": "Generic Parameters", "args": { "durationMS": 1.56599998474121, "detail": "" } },
{ "pid": 1, "tid": 1, "ts": 12075669.921875, "dur": 1016.00003242493, "ph": "X", "name": "Generic Parameter Constraints", "args": { "durationMS": 1.01600003242493, "detail": "" } },
{ "pid": 1, "tid": 1, "ts": 12076685.546875, "dur": 1587.00001239777, "ph": "X", "name": "Generic Containers", "args": { "durationMS": 1.58700001239777, "detail": "" } },
{ "pid": 1, "tid": 1, "ts": 12078272.4609375, "dur": 479.000002145767, "ph": "X", "name": "Nested Types", "args": { "durationMS": 0.479000002145767, "detail": "" } },
{ "pid": 1, "tid": 1, "ts": 12078752.9296875, "dur": 416.000008583069, "ph": "X", "name": "Interfaces", "args": { "durationMS": 0.416000008583069, "detail": "" } },
{ "pid": 1, "tid": 1, "ts": 12079168.9453125, "dur": 1108.99996757507, "ph": "X", "name": "VTables", "args": { "durationMS": 1.10899996757507, "detail": "" } },
{ "pid": 1, "tid": 1, "ts": 12080277.34375, "dur": 1391.99995994568, "ph": "X", "name": "Interface Offsets", "args": { "durationMS": 1.39199995994568, "detail": "" } },
{ "pid": 1, "tid": 1, "ts": 12081670.8984375, "dur": 74974.006652832, "ph": "X", "name": "Type Definitions", "args": { "durationMS": 74.974006652832, "detail": "" } },
{ "pid": 1, "tid": 1, "ts": 12156644.53125, "dur": 4460.00003814697, "ph": "X", "name": "Images", "args": { "durationMS": 4.46000003814697, "detail": "" } },
{ "pid": 1, "tid": 1, "ts": 12161104.4921875, "dur": 1808.9998960495, "ph": "X", "name": "Assemblies", "args": { "durationMS": 1.8089998960495, "detail": "" } },
{ "pid": 1, "tid": 1, "ts": 12162915.0390625, "dur": 962.999999523163, "ph": "X", "name": "Metadata Usage Lists", "args": { "durationMS": 0.962999999523163, "detail": "" } },
{ "pid": 1, "tid": 1, "ts": 12163878.90625, "dur": 1796.99993133545, "ph": "X", "name": "Metadata Usage Pairs", "args": { "durationMS": 1.79699993133545, "detail": "" } },
{ "pid": 1, "tid": 1, "ts": 12165935.546875, "dur": 435.999989509583, "ph": "X", "name": "Referenced Assemblies", "args": { "durationMS": 0.435999989509583, "detail": "" } },
{ "pid": 1, "tid": 1, "ts": 12166371.09375, "dur": 1344.99990940094, "ph": "X", "name": "Attribute Types Ranges", "args": { "durationMS": 1.34499990940094, "detail": "" } },
{ "pid": 1, "tid": 1, "ts": 12167716.796875, "dur": 1177.99997329712, "ph": "X", "name": "Attribute Types", "args": { "durationMS": 1.17799997329712, "detail": "" } },
{ "pid": 1, "tid": 1, "ts": 12169222.65625, "dur": 939.999997615814, "ph": "X", "name": "Unresolved Virtual Call Parameter Ranges", "args": { "durationMS": 0.939999997615814, "detail": "" } },
{ "pid": 1, "tid": 1, "ts": 12170162.109375, "dur": 598.999977111816, "ph": "X", "name": "Windows Runtime type names", "args": { "durationMS": 0.598999977111816, "detail": "" } },
{ "pid": 1, "tid": 1, "ts": 12170761.71875, "dur": 1664.99996185303, "ph": "X", "name": "Exported Types", "args": { "durationMS": 1.66499996185303, "detail": "" } }
],
"meta_datetime": "02/17/2020 15:16:49",
"meta_command_line_args": "/Applications/Unity/Hub/Editor/2019.2.1f1/Unity.app/Contents/il2cpp/build/il2cppcore/il2cppcore.dll --convert-to-cpp --emit-null-checks --enable-array-bounds-check --dotnetprofile=unityaot --profiler-report --map-file-parser=/Applications/Unity/Hub/Editor/2019.2.1f1/Unity.app/Contents/Tools/MapFileParser/MapFileParser --directory=/Users/tugce/Desktop/UnityProjects/HexagonTugce/Temp/StagingArea/Data/Managed --generatedcppdir=/Users/tugce/Desktop/UnityProjects/HexagonTugce/Temp/il2cppOutput/il2cppOutput",
"meta_cpu_count": "8"}
